module github.com/concourse/concourse

go 1.17

require (
	cloud.google.com/go/batch v1.0.0
	cloud.google.com/go/cloudbuild v1.9.0
	cloud.google.com/go/logging v1.7.0
	cloud.google.com/go/storage v1.29.0
	code.cloudfoundry.org/clock v1.0.0
	code.cloudfoundry.org/credhub-cli v0.0.0-20220328130336-fdf1c309c819
	code.cloudfoundry.org/garden v0.0.0-20220318131934-d57de807d0ca
	code.cloudfoundry.org/lager v2.0.0+incompatible
	code.cloudfoundry.org/localip v0.0.0-20220131190813-865a62baabe7
	code.cloudfoundry.org/urljoiner v0.0.0-20170223060717-5cabba6c0a50
	github.com/DataDog/datadog-go v4.8.3+incompatible
	github.com/GoogleCloudPlatform/opentelemetry-operations-go/exporter/trace v1.7.0
	github.com/Masterminds/squirrel v1.5.3
	github.com/NYTimes/gziphandler v1.1.1
	github.com/aryann/difflib v0.0.0-20170710044230-e206f873d14a
	github.com/aws/aws-sdk-go v1.44.273
	github.com/caarlos0/env v3.5.0+incompatible
	github.com/cenkalti/backoff v2.2.1+incompatible
	github.com/concourse/dex v0.8.0
	github.com/concourse/flag v1.1.0
	github.com/concourse/go-archive v1.0.1
	github.com/concourse/retryhttp v1.1.1
	github.com/containerd/containerd v1.6.4
	github.com/containerd/go-cni v1.1.5
	github.com/containerd/typeurl v1.0.2
	github.com/coreos/go-iptables v0.6.0
	github.com/cppforlife/go-semi-semantic v0.0.0-20160921010311-576b6af77ae4
	github.com/cyberark/conjur-api-go v0.10.0
	github.com/fatih/color v1.13.0
	github.com/felixge/httpsnoop v1.0.3
	github.com/gobwas/glob v0.2.3
	github.com/goccy/go-yaml v1.9.5
	github.com/gogo/protobuf v1.3.2
	github.com/golang/groupcache v0.0.0-20210331224755-41bb18bfe9da
	github.com/google/jsonapi v0.0.0-20180618021926-5d047c6bc66b
	github.com/gorilla/websocket v1.5.0
	github.com/hashicorp/go-multierror v1.1.1
	github.com/hashicorp/go-retryablehttp v0.7.1
	github.com/hashicorp/go-rootcerts v1.0.2
	github.com/hashicorp/vault/api v1.7.0
	github.com/imdario/mergo v0.3.13
	github.com/inconshreveable/go-update v0.0.0-20160112193335-8152e7eb6ccf
	github.com/influxdata/influxdb1-client v0.0.0-20191209144304-8bf82d3c094d
	github.com/jackpal/gateway v1.0.7
	github.com/jessevdk/go-flags v1.5.0
	github.com/klauspost/compress v1.15.5
	github.com/kr/pty v1.1.8
	github.com/krishicks/yaml-patch v0.0.10
	github.com/lib/pq v1.10.6
	github.com/mattn/go-colorable v0.1.12
	github.com/mattn/go-isatty v0.0.14
	github.com/maxbrunsfeld/counterfeiter/v6 v6.5.0
	github.com/mgutz/ansi v0.0.0-20170206155736-9520e82c474b
	github.com/miekg/dns v1.1.49
	github.com/mitchellh/mapstructure v1.5.0
	github.com/nu7hatch/gouuid v0.0.0-20131221200532-179d4d0c4d8d
	github.com/onsi/ginkgo v1.16.5
	github.com/onsi/gomega v1.19.0
	github.com/opencontainers/runc v1.1.2
	github.com/opencontainers/runtime-spec v1.0.3-0.20210326190908-1c3f411f0417
	github.com/patrickmn/go-cache v2.1.0+incompatible
	github.com/peterhellberg/link v1.1.0
	github.com/pkg/errors v0.9.1
	github.com/pkg/term v1.1.1-0.20201205102247-e502d17f6e7f
	github.com/prometheus/client_golang v1.12.2
	github.com/racksec/srslog v0.0.0-20180709174129-a4725f04ec91
	github.com/sirupsen/logrus v1.8.1
	github.com/skratchdot/open-golang v0.0.0-20200116055534-eef842397966
	github.com/square/certstrap v1.2.0
	github.com/stretchr/testify v1.8.1
	github.com/tedsuo/ifrit v0.0.0-20191009134036-9a97d0632f00
	github.com/tedsuo/rata v1.0.1-0.20170830210128-07d200713958
	github.com/vbauerster/mpb/v4 v4.6.1-0.20190319154207-3a6acfe12ac6
	github.com/vito/go-interact v0.0.0-20171111012221-fa338ed9e9ec
	github.com/vito/go-sse v0.0.0-20160212001227-fd69d275caac
	github.com/vito/houdini v1.1.2-0.20220405022641-2f7acd2695d3
	github.com/vito/twentythousandtonnesofcrudeoil v0.0.0-20180305154709-3b21ad808fcb
	go.opentelemetry.io/otel v1.7.0
	go.opentelemetry.io/otel/exporters/jaeger v1.7.0
	go.opentelemetry.io/otel/exporters/otlp/otlptrace v1.7.0
	go.opentelemetry.io/otel/exporters/otlp/otlptrace/otlptracegrpc v1.7.0
	go.opentelemetry.io/otel/oteltest v1.0.0-RC3
	go.opentelemetry.io/otel/sdk v1.7.0
	go.opentelemetry.io/otel/trace v1.7.0
	golang.org/x/crypto v0.0.0-20220321153916-2c7772ba3064
	golang.org/x/oauth2 v0.6.0
	golang.org/x/sync v0.1.0
	golang.org/x/sys v0.6.0
	golang.org/x/time v0.0.0-20220210224613-90d013bbcef8
	google.golang.org/grpc v1.54.0
	gopkg.in/square/go-jose.v2 v2.6.0
	gopkg.in/yaml.v2 v2.4.0
	k8s.io/api v0.24.1
	k8s.io/apimachinery v0.24.1
	k8s.io/client-go v0.24.1
	sigs.k8s.io/yaml v1.3.0
)

require (
	cloud.google.com/go/compute v1.19.0 // indirect
	cloud.google.com/go/trace v1.9.0 // indirect
	github.com/AppsFlyer/go-sundheit v0.5.0 // indirect
	github.com/Azure/go-autorest v14.2.0+incompatible // indirect
	github.com/Azure/go-autorest/autorest v0.11.18 // indirect
	github.com/Azure/go-autorest/autorest/adal v0.9.13 // indirect
	github.com/Azure/go-autorest/autorest/date v0.3.0 // indirect
	github.com/Azure/go-autorest/logger v0.2.1 // indirect
	github.com/Azure/go-autorest/tracing v0.6.0 // indirect
	github.com/Azure/go-ntlmssp v0.0.0-20211209120228-48547f28849e // indirect
	github.com/Masterminds/goutils v1.1.1 // indirect
	github.com/Masterminds/semver/v3 v3.1.1 // indirect
	github.com/Masterminds/sprig/v3 v3.2.2 // indirect
	github.com/Microsoft/go-winio v0.5.1 // indirect
	github.com/Microsoft/hcsshim v0.9.2 // indirect
	github.com/VividCortex/ewma v1.1.1 // indirect
	github.com/armon/go-metrics v0.3.10 // indirect
	github.com/armon/go-radix v1.0.0 // indirect
	github.com/beevik/etree v1.1.0 // indirect
	github.com/beorn7/perks v1.0.1 // indirect
	github.com/bgentry/go-netrc v0.0.0-20140422174119-9fd32a8b3d3d // indirect
	github.com/bmizerany/pat v0.0.0-20210406213842-e4b6760bdd6f // indirect
	github.com/cenkalti/backoff/v3 v3.0.0 // indirect
	github.com/cenkalti/backoff/v4 v4.1.3 // indirect
	github.com/cespare/xxhash/v2 v2.2.0 // indirect
	github.com/charlievieth/fs v0.0.2 // indirect
	github.com/cloudfoundry/go-socks5 v0.0.0-20180221174514-54f73bdb8a8e // indirect
	github.com/cloudfoundry/socks5-proxy v0.2.48 // indirect
	github.com/containerd/cgroups v1.0.3 // indirect
	github.com/containerd/continuity v0.2.2 // indirect
	github.com/containerd/fifo v1.0.0 // indirect
	github.com/containerd/ttrpc v1.1.0 // indirect
	github.com/containernetworking/cni v1.1.0 // indirect
	github.com/coreos/go-oidc/v3 v3.1.0 // indirect
	github.com/creack/pty v1.1.11 // indirect
	github.com/davecgh/go-spew v1.1.1 // indirect
	github.com/dexidp/dex/api/v2 v2.1.0 // indirect
	github.com/dgrijalva/jwt-go v3.2.0+incompatible // indirect
	github.com/docker/go-events v0.0.0-20190806004212-e31b211e4f1c // indirect
	github.com/evanphx/json-patch v4.12.0+incompatible // indirect
	github.com/form3tech-oss/jwt-go v3.2.3+incompatible // indirect
	github.com/fsnotify/fsnotify v1.5.1 // indirect
	github.com/go-asn1-ber/asn1-ber v1.5.3 // indirect
	github.com/go-ldap/ldap/v3 v3.4.1 // indirect
	github.com/go-logr/logr v1.2.3 // indirect
	github.com/go-logr/stdr v1.2.2 // indirect
	github.com/go-sql-driver/mysql v1.6.0 // indirect
	github.com/gogo/googleapis v1.4.0 // indirect
	github.com/golang/protobuf v1.5.3 // indirect
	github.com/golang/snappy v0.0.4 // indirect
	github.com/google/go-cmp v0.5.9 // indirect
	github.com/google/gofuzz v1.2.0 // indirect
	github.com/google/uuid v1.3.0
	github.com/googleapis/gax-go/v2 v2.7.1 // indirect
	github.com/gorilla/handlers v1.5.1 // indirect
	github.com/gorilla/mux v1.8.0 // indirect
	github.com/grpc-ecosystem/grpc-gateway/v2 v2.7.0 // indirect
	github.com/hashicorp/errwrap v1.1.0 // indirect
	github.com/hashicorp/go-cleanhttp v0.5.2 // indirect
	github.com/hashicorp/go-hclog v1.0.0 // indirect
	github.com/hashicorp/go-immutable-radix v1.3.1 // indirect
	github.com/hashicorp/go-plugin v1.4.3 // indirect
	github.com/hashicorp/go-secure-stdlib/mlock v0.1.1 // indirect
	github.com/hashicorp/go-secure-stdlib/parseutil v0.1.6 // indirect
	github.com/hashicorp/go-secure-stdlib/strutil v0.1.2 // indirect
	github.com/hashicorp/go-sockaddr v1.0.2 // indirect
	github.com/hashicorp/go-uuid v1.0.2 // indirect
	github.com/hashicorp/go-version v1.4.0 // indirect
	github.com/hashicorp/golang-lru v0.5.4 // indirect
	github.com/hashicorp/hcl v1.0.0 // indirect
	github.com/hashicorp/vault/sdk v0.5.0 // indirect
	github.com/hashicorp/yamux v0.0.0-20180604194846-3520598351bb // indirect
	github.com/huandu/xstrings v1.3.2 // indirect
	github.com/jmespath/go-jmespath v0.4.0 // indirect
	github.com/jonboulle/clockwork v0.2.2 // indirect
	github.com/json-iterator/go v1.1.12 // indirect
	github.com/lann/builder v0.0.0-20180802200727-47ae307949d0 // indirect
	github.com/lann/ps v0.0.0-20150810152359-62de8c46ede0 // indirect
	github.com/mattermost/xml-roundtrip-validator v0.1.0 // indirect
	github.com/mattn/go-sqlite3 v1.14.11 // indirect
	github.com/matttproud/golang_protobuf_extensions v1.0.2-0.20181231171920-c182affec369 // indirect
	github.com/mitchellh/copystructure v1.2.0 // indirect
	github.com/mitchellh/go-homedir v1.1.0 // indirect
	github.com/mitchellh/go-testing-interface v1.0.0 // indirect
	github.com/mitchellh/reflectwalk v1.0.2 // indirect
	github.com/moby/locker v1.0.1 // indirect
	github.com/moby/sys/mountinfo v0.5.0 // indirect
	github.com/moby/sys/signal v0.6.0 // indirect
	github.com/modern-go/concurrent v0.0.0-20180306012644-bacd9c7ef1dd // indirect
	github.com/modern-go/reflect2 v1.0.2 // indirect
	github.com/nxadm/tail v1.4.8 // indirect
	github.com/oklog/run v1.1.0 // indirect
	github.com/opencontainers/go-digest v1.0.0 // indirect
	github.com/opencontainers/image-spec v1.0.3-0.20211202183452-c5a74bcca799 // indirect
	github.com/opencontainers/selinux v1.10.1 // indirect
	github.com/pmezard/go-difflib v1.0.0 // indirect
	github.com/prometheus/client_model v0.2.0 // indirect
	github.com/prometheus/common v0.32.1 // indirect
	github.com/prometheus/procfs v0.7.3 // indirect
	github.com/russellhaering/goxmldsig v1.1.1 // indirect
	github.com/ryanuber/go-glob v1.0.0 // indirect
	github.com/shopspring/decimal v1.3.1 // indirect
	github.com/spf13/cast v1.4.1 // indirect
	github.com/spf13/pflag v1.0.5 // indirect
	github.com/stretchr/objx v0.5.0 // indirect
	go.opencensus.io v0.24.0 // indirect
	go.opentelemetry.io/otel/exporters/otlp/internal/retry v1.7.0 // indirect
	go.opentelemetry.io/proto/otlp v0.16.0 // indirect
	go.uber.org/atomic v1.9.0 // indirect
	golang.org/x/mod v0.8.0 // indirect
	golang.org/x/net v0.8.0 // indirect
	golang.org/x/term v0.6.0 // indirect
	golang.org/x/text v0.8.0 // indirect
	golang.org/x/tools v0.6.0 // indirect
	golang.org/x/xerrors v0.0.0-20220907171357-04be3eba64a2 // indirect
	google.golang.org/api v0.114.0
	google.golang.org/appengine v1.6.7 // indirect
	google.golang.org/genproto v0.0.0-20230323212658-478b75c54725 // indirect
	google.golang.org/protobuf v1.30.0
	gopkg.in/inf.v0 v0.9.1 // indirect
	gopkg.in/tomb.v1 v1.0.0-20141024135613-dd632973f1e7 // indirect
	gopkg.in/yaml.v3 v3.0.1 // indirect
	k8s.io/klog/v2 v2.60.1 // indirect
	k8s.io/kube-openapi v0.0.0-20220328201542-3ee0da9b0b42 // indirect
	k8s.io/utils v0.0.0-20220210201930-3a6ce19ff2f9 // indirect
	sigs.k8s.io/json v0.0.0-20211208200746-9f7c6b3444d2 // indirect
	sigs.k8s.io/structured-merge-diff/v4 v4.2.1 // indirect
)

require (
	cloud.google.com/go v0.110.0 // indirect
	cloud.google.com/go/compute/metadata v0.2.3 // indirect
	cloud.google.com/go/iam v0.13.0 // indirect
	cloud.google.com/go/longrunning v0.4.1 // indirect
	github.com/GoogleCloudPlatform/opentelemetry-operations-go/internal/resourcemapping v0.31.0 // indirect
	github.com/PuerkitoBio/purell v1.1.1 // indirect
	github.com/PuerkitoBio/urlesc v0.0.0-20170810143723-de5bf2ad4578 // indirect
	github.com/emicklei/go-restful v2.9.5+incompatible // indirect
	github.com/go-openapi/jsonpointer v0.19.5 // indirect
	github.com/go-openapi/jsonreference v0.19.5 // indirect
	github.com/go-openapi/swag v0.19.14 // indirect
	github.com/google/gnostic v0.5.7-v3refs // indirect
	github.com/googleapis/enterprise-certificate-proxy v0.2.3 // indirect
	github.com/josharian/intern v1.0.0 // indirect
	github.com/mailru/easyjson v0.7.6 // indirect
	github.com/munnerz/goautoneg v0.0.0-20191010083416-a7dc8b61c822 // indirect
	github.com/pierrec/lz4 v2.6.0+incompatible // indirect
)
